{
    "_id": "569de1ade730ed0100413d44",
    "modified": "2016-01-19T07:11:41.339Z",
    "type": "form",
    "name": "capGroupsModals",
    "project": "MansysCloud",
    "created": "2016-01-19T07:11:41.297Z",
    "modals": [
        {
            "modalId": 1,
            "modalCode": "countryOrigin1",
            "components": [
                {
                    "isNew": true,
                    "type": "columns",
                    "columns": [
                        {
                            "components": [
                                {
                                    "input": false,
                                    "class": "panel4",
                                    "numRows": 2,
                                    "numCols": 5,
                                    "apiCall": true,
                                    "enableRowSelection": true,
                                    "apiUrl": "MasterFileSelection/MF_COUNTRY",
                                    "methodType": "GET",
                                    "params": {},
                                    "header": [
                                        {
                                            "field": "countryCode",
                                            "headerCellTemplate": "<div role=\"columnheader\" ng-class=\"{ 'sortable': sortable }\" ui-grid-one-bind-aria-labelledby-grid=\"col.uid + '-header-text ' + col.uid + '-sortdir-text'\" > <div ng-click='grid.appScope.sorting($event,\"countryCode\")' class=\"ui-grid-cell-contents\" col-index=\"renderIndex\" title=\"TOOLTIP\"> <span>{{ col.displayName CUSTOM_FILTERS }}{{sort}}</span><i ng-class=\"{ 'ui-grid-icon-up-dir': col.sort.direction == asc, 'ui-grid-icon-down-dir': col.sort.direction == desc }\" ></i> </div><div class=\"ui-grid-column-menu-button\" ng-if=\"grid.options.enableColumnMenus && !col.isRowHeader  && col.colDef.enableColumnMenu !== false\" ng-click=\"toggleMenu($event)\" ng-class=\"{'ui-grid-column-menu-button-last-col': isLastCol}\"><i class=\"\">&nbsp;</i></div><div ui-grid-filter></div></div>"
                                        },
                                        {
                                            "field": "countryName",
                                            "headerCellTemplate": "<div role=\"columnheader\" ng-class=\"{ 'sortable': sortable }\" ui-grid-one-bind-aria-labelledby-grid=\"col.uid + '-header-text ' + col.uid + '-sortdir-text'\" > <div ng-click='grid.appScope.sorting($event,\"countryName\")' class=\"ui-grid-cell-contents\" col-index=\"renderIndex\" title=\"TOOLTIP\"> <span>{{ col.displayName CUSTOM_FILTERS }}{{sort}}</span><i ng-class=\"{ 'ui-grid-icon-up-dir': col.sort.direction == asc, 'ui-grid-icon-down-dir': col.sort.direction == desc }\" ></i> </div><div class=\"ui-grid-column-menu-button\" ng-if=\"grid.options.enableColumnMenus && !col.isRowHeader  && col.colDef.enableColumnMenu !== false\" ng-click=\"toggleMenu($event)\" ng-class=\"{'ui-grid-column-menu-button-last-col': isLastCol}\"><i class=\"\">&nbsp;</i></div><div ui-grid-filter></div></div>"
                                        },
                                        {
                                            "field": "currencyCode",
                                            "headerCellTemplate": "<div role=\"columnheader\" ng-class=\"{ 'sortable': sortable }\" ui-grid-one-bind-aria-labelledby-grid=\"col.uid + '-header-text ' + col.uid + '-sortdir-text'\" > <div ng-click='grid.appScope.sorting($event,\"currencyCode\")' class=\"ui-grid-cell-contents\" col-index=\"renderIndex\" title=\"TOOLTIP\"> <span>{{ col.displayName CUSTOM_FILTERS }}{{sort}}</span><i ng-class=\"{ 'ui-grid-icon-up-dir': col.sort.direction == asc, 'ui-grid-icon-down-dir': col.sort.direction == desc }\" ></i> </div><div class=\"ui-grid-column-menu-button\" ng-if=\"grid.options.enableColumnMenus && !col.isRowHeader  && col.colDef.enableColumnMenu !== false\" ng-click=\"toggleMenu($event)\" ng-class=\"{'ui-grid-column-menu-button-last-col': isLastCol}\"><i class=\"\">&nbsp;</i></div><div ui-grid-filter></div></div>"
                                        },
                                        {
                                            "field": "currencyName",
                                            "headerCellTemplate": "<div role=\"columnheader\" ng-class=\"{ 'sortable': sortable }\" ui-grid-one-bind-aria-labelledby-grid=\"col.uid + '-header-text ' + col.uid + '-sortdir-text'\" > <div ng-click='grid.appScope.sorting($event,\"currencyName\")' class=\"ui-grid-cell-contents\" col-index=\"renderIndex\" title=\"TOOLTIP\"> <span>{{ col.displayName CUSTOM_FILTERS }}{{sort}}</span><i ng-class=\"{ 'ui-grid-icon-up-dir': col.sort.direction == asc, 'ui-grid-icon-down-dir': col.sort.direction == desc }\" ></i> </div><button  class=\"btn btn-md xs-46 green mr5 pull-right refreshButton\"  title=\"Refresh\" ng-click=\"grid.appScope.refreshDynamicGridData();\"><i class=\"fa fa-refresh\" aria-hidden=\"true\" style=\"position:relative;top:-2px;\"></i></button><div class=\"ui-grid-column-menu-button\" ng-if=\"grid.options.enableColumnMenus && !col.isRowHeader  && col.colDef.enableColumnMenu !== false\" ng-click=\"toggleMenu($event)\" ng-class=\"{'ui-grid-column-menu-button-last-col': isLastCol}\"><i class=\"\">&nbsp;</i></div><div ui-grid-filter></div></div>"
                                        }
                                    ],
                                    "methodType": "GET",
                                    "params": {},
                                    "caption": "",
                                    "striped": false,
                                    "mappedData": "",
                                    "mappedKey": "",
                                    "addDatainGrid": "",
                                    "bordered": false,
                                    "hover": false,
                                    "size": 4,
                                    "filter": true,
                                    "condensed": false,
                                    "standardMasterfileFileFunctionality": true,
                                    "type": "ui-grid"
                                }
                            ],
                            "size": 12
                        }
                    ],
                    "input": false
                }
            ]
        },
        {
            "modalId": 2,
            "modalCode": "countryOrigin2",
            "components": [
                {
                    "isNew": true,
                    "type": "columns",
                    "columns": [
                        {
                            "components": [
                                {
                                    "input": false,
                                    "class": "panel4",
                                    "numRows": 2,
                                    "numCols": 5,
                                    "apiCall": true,
                                    "enableRowSelection": true,
                                    "apiUrl": "MasterFileSelection/MF_COUNTRY",
                                    "methodType": "GET",
                                    "params": {},
                                    "header": [
                                        {
                                            "field": "countryCode",
                                            "headerCellTemplate": "<div role=\"columnheader\" ng-class=\"{ 'sortable': sortable }\" ui-grid-one-bind-aria-labelledby-grid=\"col.uid + '-header-text ' + col.uid + '-sortdir-text'\" > <div ng-click='grid.appScope.sorting($event,\"countryCode\")' class=\"ui-grid-cell-contents\" col-index=\"renderIndex\" title=\"TOOLTIP\"> <span>{{ col.displayName CUSTOM_FILTERS }}{{sort}}</span><i ng-class=\"{ 'ui-grid-icon-up-dir': col.sort.direction == asc, 'ui-grid-icon-down-dir': col.sort.direction == desc }\" ></i> </div><div class=\"ui-grid-column-menu-button\" ng-if=\"grid.options.enableColumnMenus && !col.isRowHeader  && col.colDef.enableColumnMenu !== false\" ng-click=\"toggleMenu($event)\" ng-class=\"{'ui-grid-column-menu-button-last-col': isLastCol}\"><i class=\"\">&nbsp;</i></div><div ui-grid-filter></div></div>"
                                        },
                                        {
                                            "field": "countryName",
                                            "headerCellTemplate": "<div role=\"columnheader\" ng-class=\"{ 'sortable': sortable }\" ui-grid-one-bind-aria-labelledby-grid=\"col.uid + '-header-text ' + col.uid + '-sortdir-text'\" > <div ng-click='grid.appScope.sorting($event,\"countryName\")' class=\"ui-grid-cell-contents\" col-index=\"renderIndex\" title=\"TOOLTIP\"> <span>{{ col.displayName CUSTOM_FILTERS }}{{sort}}</span><i ng-class=\"{ 'ui-grid-icon-up-dir': col.sort.direction == asc, 'ui-grid-icon-down-dir': col.sort.direction == desc }\" ></i> </div><div class=\"ui-grid-column-menu-button\" ng-if=\"grid.options.enableColumnMenus && !col.isRowHeader  && col.colDef.enableColumnMenu !== false\" ng-click=\"toggleMenu($event)\" ng-class=\"{'ui-grid-column-menu-button-last-col': isLastCol}\"><i class=\"\">&nbsp;</i></div><div ui-grid-filter></div></div>"
                                        },
                                        {
                                            "field": "currencyCode",
                                            "headerCellTemplate": "<div role=\"columnheader\" ng-class=\"{ 'sortable': sortable }\" ui-grid-one-bind-aria-labelledby-grid=\"col.uid + '-header-text ' + col.uid + '-sortdir-text'\" > <div ng-click='grid.appScope.sorting($event,\"currencyCode\")' class=\"ui-grid-cell-contents\" col-index=\"renderIndex\" title=\"TOOLTIP\"> <span>{{ col.displayName CUSTOM_FILTERS }}{{sort}}</span><i ng-class=\"{ 'ui-grid-icon-up-dir': col.sort.direction == asc, 'ui-grid-icon-down-dir': col.sort.direction == desc }\" ></i> </div><div class=\"ui-grid-column-menu-button\" ng-if=\"grid.options.enableColumnMenus && !col.isRowHeader  && col.colDef.enableColumnMenu !== false\" ng-click=\"toggleMenu($event)\" ng-class=\"{'ui-grid-column-menu-button-last-col': isLastCol}\"><i class=\"\">&nbsp;</i></div><div ui-grid-filter></div></div>"
                                        },
                                        {
                                            "field": "currencyName",
                                            "headerCellTemplate": "<div role=\"columnheader\" ng-class=\"{ 'sortable': sortable }\" ui-grid-one-bind-aria-labelledby-grid=\"col.uid + '-header-text ' + col.uid + '-sortdir-text'\" > <div ng-click='grid.appScope.sorting($event,\"currencyName\")' class=\"ui-grid-cell-contents\" col-index=\"renderIndex\" title=\"TOOLTIP\"> <span>{{ col.displayName CUSTOM_FILTERS }}{{sort}}</span><i ng-class=\"{ 'ui-grid-icon-up-dir': col.sort.direction == asc, 'ui-grid-icon-down-dir': col.sort.direction == desc }\" ></i> </div><button  class=\"btn btn-md xs-46 green mr5 pull-right refreshButton\"  title=\"Refresh\" ng-click=\"grid.appScope.refreshDynamicGridData();\"><i class=\"fa fa-refresh\" aria-hidden=\"true\" style=\"position:relative;top:-2px;\"></i></button><div class=\"ui-grid-column-menu-button\" ng-if=\"grid.options.enableColumnMenus && !col.isRowHeader  && col.colDef.enableColumnMenu !== false\" ng-click=\"toggleMenu($event)\" ng-class=\"{'ui-grid-column-menu-button-last-col': isLastCol}\"><i class=\"\">&nbsp;</i></div><div ui-grid-filter></div></div>"
                                        }
                                    ],
                                    "methodType": "GET",
                                    "params": {},
                                    "caption": "",
                                    "striped": false,
                                    "mappedData": "",
                                    "mappedKey": "",
                                    "addDatainGrid": "",
                                    "bordered": false,
                                    "hover": false,
                                    "size": 4,
                                    "condensed": false,
                                    "filter": true,
                                    "standardMasterfileFileFunctionality": true,
                                    "type": "ui-grid"
                                }
                            ],
                            "size": 12
                        }
                    ],
                    "input": false
                }
            ]
        }
    ]
}
