{
    "_id": "569de1ade730ed0100413d44",
    "modified": "2016-01-19T07:11:41.339Z",
    "title": "Commission Agent Navigation",
    "name": "commissionAgentNavigation",
    "path": "commissionAgent",
    "project": "MansysCloud",
    "created": "2016-01-19T07:11:41.297Z",
    "standard": [
        {
            "select": false,
            "ul": false,
            "key": "check",
            "label": "Map",
            "action": "map()",
            "type": "button",
            "title": "Map",
            "page": "template.edit",
            "navbar": "standard",
            "colour": "btn-green",
            "icon": "fa fa-link ml5"
        },
        {
            "select": false,
            "ul": false,
            "key": "check",
            "label": "Permissions",
            "action": "newFormsdf()",
            "type": "button",
            "page": "template.edit",
            "title": "Permissions",
            "navbar": "standard",
            "colour": "btn-danger",
            "icon": " fa fa-unlock-alt ml5"
        },
        {
            "select": false,
            "ul": false,
            "key": "check",
            "label": "Audit Log",
            "action": "audit('auditLog','gridOptions1')",
            "type": "button",
            "title": "Audit Log",
            "page": "template.edit",
            "navbar": "standard",
            "colour": "btn-warning",
            "icon": "fa fa-tasks ml5"
        }
    ],
    "primary": [
        {
            "select": false,
            "checkbox": false,
            "label": "Browse",
            "key": "check",
            "theme": "primary",
            "action": "editForm()",
            "type": "button",
            "title": "Browse",
            "page": "template.edit",
            "colour": "btn-gold",
            "navbar": "primary",
            "icon": "fa fa-list-alt ml5"
        },
        {
            "select": false,
            "checkbox": false,
            "label": "New",
            "key": "check",
            "theme": "primary",
            "action": "newForm()",
            "title": "New Record",
            "type": "button",
            "page": "template.edit",
            "colour": "btn-green",
            "navbar": "primary",
            "icon": "fa fa-plus ml5"
        },
        {
            "select": false,
            "checkbox": false,
            "label": "Delete",
            "key": "check",
            "theme": "primary",
            "action": "opensecondaryformModal('delete','','saveButton','','','custom-modal','gridOptions')",
            "title": "Delete Record",
            "type": "button",
            "page": "template.edit",
            "colour": "btn-danger",
            "navbar": "primary",
            "icon": "fa fa-trash ml5"
        },
        {
            "select": false,
            "checkbox": true,
            "key": "check",
            "label": "Keep Data",
            "theme": "primary",
            "action": "keepData($event)",
            "type": "button",
            "title": "Keep Data",
            "page": "template.edit",
            "colour": "blue",
            "navbar": "primary",
            "icon": "fa fa-trash ml5"
        },
        {
            "select": false,
            "checkbox": false,
            "label": "Contacts",
            "key": "check",
            "theme": "primary",
            "action": "opensecondaryformModal('maintainContacts','Select Contact','saveButton','Newbutton','MaintainContacts','custom-modal1',['gridOptions'])",
            "title": "Maintain Contacts",
            "type": "button",
            "page": "template.edit",
            "colour": "green",
            "navbar": "primary",
            "icon": "fa fa-user ml5"
        },
        {
            "select": false,
            "checkbox": false,
            "label": "",
            "key": "check",
            "theme": "primary",
            "action": "helpButton()",
            "type": "button",
            "title": "Help",
            "page": "template.edit",
            "colour": "blue",
            "navbar": "primary",
            "icon": "fa fa-question-circle"
        }
    ],
    "secondary":[
        {
            "select": false,
            "checkbox": false,
            "label": "Audit History",
            "key": "check",
            "theme": "primary",
            "action": "audit('auditLog','gridOptions1')",
            "type": "button",
            "title": "Show Audit History",
            "page": "template.edit",
            "colour": "green",
            "navbar": "primary",
            "icon": ""
        }
    ],
    "viewPage": [
        {
            "select": false,
            "checkbox": false,
            "label": "New",
            "key": "check",
            "theme": "primary",
            "action": "newForm()",
            "type": "button",
            "title": "New Record",
            "page": "template.commissionAgent",
            "colour": "btn-green",
            "navbar": "primary",
            "icon": "fa fa-plus ml5",
            "size": "mr5"
        },
        {
            "select": false,
            "checkbox": false,
            "label": "",
            "key": "check",
            "theme": "primary",
            "action": "helpButton()",
            "type": "button",
            "title": "Help",
            "page": "template.commissionAgent",
            "colour": "blue",
            "navbar": "primary",
            "icon": "fa fa-question-circle",
            "size": "mr15"
        }
    ]
}
