{
    "_id": "569de1ade730ed0100413d44",
    "modified": "2016-01-19T07:11:41.339Z",
    "title": "Groups",
    "type": "form",
    "name": "groups",
    "path": "groups",
    "project": "MansysCloud",
    "created": "2016-01-19T07:11:41.297Z",
    "tabs": [
        {
            "tabId": 1,
            "tabName": "Allgroups",
            "components": [
                {
                    "input": false,
                    "numRows": 1,
                    "numCols": 5,
                    "class": "panel1",
                    "rows": [
                        [
                            {
                                "components": [
                                    {
                                        "input": true,
                                        "label": " Create New Group",
                                        "tableView": false,
                                        "key": "newGroup",
                                        "size": "12",
                                        "leftIcon": "",
                                        "hidden": false,
                                        "color": "#e7505a",
                                        "rightIcon": "",
                                        "block": false,
                                        "action": "openFormModals('New Group','Create new Group')",
                                        "disableOnInvalid": true,
                                        "theme": "primary",
                                        "type": "button"
                                    }
                                ]
                            }
                        ],
                        [
                            {
                                "components": [
                                    {
                                        "columns": [
                                            {
                                                "components": [
                                                    {
                                                        "isNew": true,
                                                        "type": "columns",
                                                        "columns": [
                                                            {
                                                                "components": [
                                                                    {
                                                                        "input": false,
                                                                        "class": "panel4",
                                                                        "numRows": 2,
                                                                        "numCols": 5,
                                                                        "apiCall": true,
                                                                        "header": [{
                                                                                "field": ""
                                                                            },
                                                                            {
                                                                                "field": ""
                                                                            },
                                                                            {
                                                                                "field": ""
                                                                            },
                                                                            {
                                                                                "field": ""
                                                                            }
                                                                        ],
                                                                        "methodType": "GET",
                                                                        "params": {},
                                                                        "caption": "",
                                                                        "striped": false,
                                                                        "bordered": false,
                                                                        "hover": false,
                                                                        "size": 4,
                                                                        "condensed": false,
                                                                        "type": "ui-grid"
                                                                    }
                                                                ],
                                                                "size": 12
                                                            }
                                                        ],
                                                        "input": false
                                                    }
                                                ],
                                                "size": 12
                                            }
                                        ],
                                        "type": "columns"
                                    }
                                ]
                            }
                        ]
                    ],
                    "header": [
                    ],
                    "caption": "",
                    "striped": false,
                    "bordered": false,
                    "hover": false,
                    "condensed": false,
                    "type": "table"
                }
            ]

        },
        {
            "tabId": 2,
            "tabName": "GroupsInvitations",
            "components": [
                {
                    "input": false,
                    "numRows": 1,
                    "numCols": 5,
                    "class": "panel1",
                    "rows": [
                        [
                            {
                                "components": [
                                    {
                                        "input": true,
                                        "tableView": true,
                                        "inputType": "text",
                                        "inputMask": "",
                                        "FieldType": "standard",
                                        "hidden": false,
                                        "label": "Upload Photo",
                                        "placeholder": "",
                                        "prefix": "",
                                        "suffix": "",
                                        "multiple": false,
                                        "width": 4,
                                        "size": "6",
                                        "defaultValue": "",
                                        "protected": false,
                                        "unique": false,
                                        "persistent": true,
                                        "validate": {
                                            "required": false,
                                            "requiredMessage": "This field required!",
                                            "minLength": "",
                                            "minMessage": "",
                                            "maxLength": "",
                                            "maxMessage": "",
                                            "pattern": "",
                                            "patternMessage": "",
                                            "custom": "",
                                            "customPrivate": false
                                        },
                                        "type": "label"
                                    }
                                ]
                            }
                        ],
                        [
                            {
                                "components": [
                                    {
                                        "input": true,
                                        "tableView": true,
                                        "inputType": "text",
                                        "inputMask": "",
                                        "FieldType": "standard",
                                        "hidden": false,
                                        "label": "Add a personal touch while using mansys by uploading a Logo / Picture. The Image you upload will be displayed while accessing mansys services.",
                                        "placeholder": "",
                                        "prefix": "",
                                        "suffix": "",
                                        "multiple": false,
                                        "width": 5,
                                        "size": "12",
                                        "defaultValue": "",
                                        "protected": false,
                                        "unique": false,
                                        "persistent": true,
                                        "validate": {
                                            "required": false,
                                            "requiredMessage": "This field required!",
                                            "minLength": "",
                                            "minMessage": "",
                                            "maxLength": "",
                                            "maxMessage": "",
                                            "pattern": "",
                                            "patternMessage": "",
                                            "custom": "",
                                            "customPrivate": false
                                        },
                                        "type": "label"
                                    }
                                ]
                            }
                        ],
                        [
                            {
                                "components": [
                                    {
                                        "input": true,
                                        "tableView": true,
                                        "hidden": false,
                                        "inputType": "text",
                                        "inputMask": "",
                                        "label": "Choose A Picture",
                                        "FieldType": "standard",
                                        "key": "logoFilename",
                                        "placeholder": "",
                                        "prefix": "",
                                        "size": "6",
                                        "suffix": "",
                                        "multiple": false,
                                        "defaultValue": "",
                                        "protected": false,
                                        "unique": false,
                                        "persistent": true,
                                        "validate": {
                                            "required": false,
                                            "requiredMessage": "This field required!",
                                            "minLength": "",
                                            "minMessage": "",
                                            "maxLength": "",
                                            "maxMessage": "",
                                            "pattern": "",
                                            "patternMessage": "",
                                            "custom": "",
                                            "customPrivate": false
                                        },
                                        "type": "file"
                                    }
                                ]
                            },
                            {
                                "components": [
                                    {
                                        "input": true,
                                        "tableView": true,
                                        "hidden": false,
                                        "label": "Photo View Permission",
                                        "key": "photoViews",
                                        "size": "6",
                                        "placeholder": "",
                                        "FieldType": "standard",
                                        "data": {
                                            "values": [
                                                {
                                                    "id": "1",
                                                    "label": "Mansys Registered Users"
                                                },
                                                {
                                                    "id": "2",
                                                    "label": "Mansys Registered Users"
                                                },
                                                {
                                                    "id": "3",
                                                    "label": "Mansys Registered Users"
                                                }
                                            ],
                                            "json": "",
                                            "url": ""
                                        },
                                        "dataSrc": "values",
                                        "valueProperty": "",
                                        "defaultValue": "",
                                        "template": "<span>{{ item.label }}</span>",
                                        "multiple": false,
                                        "protected": false,
                                        "unique": false,
                                        "persistent": true,
                                        "validate": {
                                            "required": false,
                                            "requiredMessage": "This field required!",
                                            "minLength": "",
                                            "minMessage": "",
                                            "maxLength": "",
                                            "maxMessage": "",
                                            "pattern": "",
                                            "patternMessage": "",
                                            "custom": "",
                                            "customPrivate": false
                                        },
                                        "type": "select"
                                    }
                                ]
                            }
                        ],
                        [
                            {
                                "components": [
                                    {
                                        "input": true,
                                        "tableView": true,
                                        "inputType": "text",
                                        "inputMask": "",
                                        "FieldType": "standard",
                                        "hidden": false,
                                        "label": "Note:-",
                                        "placeholder": "",
                                        "prefix": "",
                                        "suffix": "",
                                        "multiple": false,
                                        "width": 4,
                                        "size": "6",
                                        "defaultValue": "",
                                        "protected": false,
                                        "unique": false,
                                        "persistent": true,
                                        "validate": {
                                            "required": false,
                                            "requiredMessage": "This field required!",
                                            "minLength": "",
                                            "minMessage": "",
                                            "maxLength": "",
                                            "maxMessage": "",
                                            "pattern": "",
                                            "patternMessage": "",
                                            "custom": "",
                                            "customPrivate": false
                                        },
                                        "type": "label"
                                    }
                                ]
                            }
                        ],
                        [
                            {
                                "components": [
                                    {
                                        "input": true,
                                        "tableView": true,
                                        "inputType": "text",
                                        "inputMask": "",
                                        "FieldType": "standard",
                                        "hidden": false,
                                        "label": "1. Supported file formates are jpg/gif/png/jpeg",
                                        "placeholder": "",
                                        "prefix": "",
                                        "suffix": "",
                                        "multiple": false,
                                        "width": 5,
                                        "size": "6",
                                        "defaultValue": "",
                                        "protected": false,
                                        "unique": false,
                                        "persistent": true,
                                        "validate": {
                                            "required": false,
                                            "requiredMessage": "This field required!",
                                            "minLength": "",
                                            "minMessage": "",
                                            "maxLength": "",
                                            "maxMessage": "",
                                            "pattern": "",
                                            "patternMessage": "",
                                            "custom": "",
                                            "customPrivate": false
                                        },
                                        "type": "label"
                                    }
                                ]
                            }
                        ],
                        [
                            {
                                "components": [
                                    {
                                        "input": true,
                                        "tableView": true,
                                        "inputType": "text",
                                        "inputMask": "",
                                        "FieldType": "standard",
                                        "hidden": false,
                                        "label": "2. File size should be less than 2 MB",
                                        "placeholder": "",
                                        "prefix": "",
                                        "suffix": "",
                                        "multiple": false,
                                        "width": 5,
                                        "size": "6",
                                        "defaultValue": "",
                                        "protected": false,
                                        "unique": false,
                                        "persistent": true,
                                        "validate": {
                                            "required": false,
                                            "requiredMessage": "This field required!",
                                            "minLength": "",
                                            "minMessage": "",
                                            "maxLength": "",
                                            "maxMessage": "",
                                            "pattern": "",
                                            "patternMessage": "",
                                            "custom": "",
                                            "customPrivate": false
                                        },
                                        "type": "label"
                                    }
                                ]
                            }
                        ],
                        [
                            {
                                "components": [
                                    {
                                        "input": true,
                                        "tableView": true,
                                        "inputType": "text",
                                        "inputMask": "",
                                        "FieldType": "standard",
                                        "hidden": false,
                                        "label": "3. Please don't upload obscene/copyrighted/celebrity images<./p>",
                                        "placeholder": "",
                                        "prefix": "",
                                        "suffix": "",
                                        "multiple": false,
                                        "width": 5,
                                        "size": "6",
                                        "defaultValue": "",
                                        "protected": false,
                                        "unique": false,
                                        "persistent": true,
                                        "validate": {
                                            "required": false,
                                            "requiredMessage": "This field required!",
                                            "minLength": "",
                                            "minMessage": "",
                                            "maxLength": "",
                                            "maxMessage": "",
                                            "pattern": "",
                                            "patternMessage": "",
                                            "custom": "",
                                            "customPrivate": false
                                        },
                                        "type": "label"
                                    }
                                ]
                            }
                        ]
                    ],
                    "header": [
                    ],
                    "caption": "",
                    "striped": false,
                    "bordered": false,
                    "hover": false,
                    "condensed": false,
                    "type": "table"
                }
            ]

        }
    ],
    "buttons": [
        {
            "input": true,
            "label": "Save and Close",
            "placeholder": "Save and Close",
            "tableView": false,
            "key": "submit",
            "size": "md",
            "leftIcon": "",
            "rightIcon": "",
            "block": false,
            "action": "saveCloseForm(main)",
            "disableOnInvalid": true,
            "theme": "primary",
            "type": "button"
        },
        {
            "input": true,
            "label": "Save",
            "tableView": false,
            "key": "submit",
            "size": "md",
            "leftIcon": "",
            "rightIcon": "",
            "block": false,
            "action": "saveForm(main)",
            "disableOnInvalid": true,
            "theme": "primary",
            "type": "button"
        },
        {
            "input": true,
            "label": "Cancel",
            "tableView": false,
            "key": "submit",
            "size": "md",
            "leftIcon": "",
            "rightIcon": "",
            "block": false,
            "action": "reset()",
            "disableOnInvalid": true,
            "theme": "primary",
            "type": "button"
        }
    ]
}
