{
    "_id": "569de1ade730ed0100413d44",
    "modified": "2016-01-19T07:11:41.339Z",
    "title": "Places",
    "type": "form",
    "name": "places",
    "path": "places",
    "project": "MansysCloud",
    "created": "2016-01-19T07:11:41.297Z",
    "clearField": [
        {
            "key": "placeCode"
        }
    ],
    "deleteKey": [
        {
            "key": "placeId"
        }
    ],
    "components": [
        {
            "input": false,
            "title": "Places",
            "theme": "primary",
            "components": [
                {
                    "input": false,
                    "numRows": 1,
                    "numCols": 5,
                    "class": "panel1",
                    "rows": [
                        [
                            {
                                "components": [
                                    {
                                        "input": true,
                                        "tableView": true,
                                        "inputType": "text",
                                        "inputMask": "",
                                        "label": "Place Code",
                                        "key": "placeCode",
                                        "placeholder": "",
                                        "FieldType": "standard",
                                        "spacing": "margin",
                                        "spacingFrom": "top",
                                        "spacingSize": "0",
                                        "hidden": false,
                                        "prefix": "",
                                        "suffix": "",
                                        "multiple": false,
                                        "size": "2",
                                        "defaultValue": "",
                                        "protected": false,
                                        "unique": false,
                                        "persistent": true,
                                        "validate": {
                                            "required": true,
                                            "requiredMessage": "This field required!",
                                            "minLength": "",
                                            "minMessage": "",
                                            "maxLength": "16",
                                                    "standardApiLength": "16",
                                            "maxMessage": "",
                                            "pattern": "",
                                            "patternMessage": "",
                                            "custom": "",
                                            "customPrivate": false
                                        },
                                        "type": "textfield"
                                    }
                                ]
                            }
                        ],
                        [
                            {
                                "components": [
                                    {
                                        "input": true,
                                        "tableView": true,
                                        "inputType": "text",
                                        "inputMask": "",
                                        "label": "Place Description",
                                        "key": "placeDescription",
                                        "FieldType": "standard",
                                        "hidden": false,
                                        "placeholder": "",
                                        "prefix": "",
                                        "spacing": "margin",
                                        "spacingFrom": "top",
                                        "spacingSize": "0",
                                        "suffix": "",
                                        "multiple": false,
                                        "size": "12",
                                        "defaultValue": "",
                                        "protected": false,
                                        "unique": false,
                                        "persistent": true,
                                        "validate": {
                                            "required": false,
                                            "requiredMessage": "This field required!",
                                            "minLength": "",
                                            "minMessage": "",
                                            "maxLength": "",
                                            "maxMessage": "",
                                            "pattern": "",
                                            "patternMessage": "",
                                            "custom": "",
                                            "customPrivate": false
                                        },
                                        "type": "text"
                                    }
                                ]
                            }
                        ],
                        [
                            {
                                "components": [
                                    {
                                        "input": true,
                                        "tableView": true,
                                        "inputType": "text",
                                        "inputMask": "",
                                        "label": "Country",
                                        "key": "countryName",
                                        "placeholder": "",
                                        "FieldType": "standard",
                                        "hidden": false,
                                        "prefix": "",
                                        "spacing": "margin",
                                        "spacingFrom": "top",
                                        "spacingSize": "0",
                                        "suffix": "",
                                        "multiple": false,
                                        "size": "4",
                                        "defaultValue": "",
                                        "protected": false,
                                        "unique": false,
                                        "persistent": true,
                                        "validate": {
                                            "required": false,
                                            "requiredMessage": "This field required!",
                                            "minLength": "",
                                            "minMessage": "",
                                            "maxLength": "",
                                            "maxMessage": "",
                                            "pattern": "",
                                            "patternMessage": "",
                                            "custom": "",
                                            "customPrivate": false
                                        },
                                        "masterfileselection": true,
                                        "masterfileSelectionCode": "MF_COUNTRY",
                                        "masterfilemodaltitle": "Master File Selection (MF_COUNTRY)",
                                        "masterfileselectionType": "editable",
                                        "masterfilefiltercode": "countryCode",
                                        "masterfilefilterurl": "MasterFileSelectionWithFilter/MF_COUNTRY",
                                        "mappedcolumn": "countryId",
                                        "masterfileModalcode": "countryCode",
                                        "masterfileFilteredcolumn": "countryCode",
                                        "masterfileSeachinFilteredcolumn": "countryName",
                                        "masterfileSeachinFilteredcolumnId": "countryId",
                                        "masterfileEditablecolumn": "countryName",
                                        "masterfileSeachinEditablecolumn": "countryName",
                                        "masterfileSeachinEditablecolumnId": "countryId",
                                        "displaycolumn": "countryName",
                                        "datacolumn": "countryId",
                                        "type": "textfield",
                                        "button": false,
                                        "buttonAction": "callCurrency()",
                                        "clearOtherMasterFileFields": "",
                                        "ModalButtons": false,
                                        "displayColumnAll": "",
                                        "displayColumnValue": "",
                                        "showMyTab": ""
                                    }
                                ]
                            }
                        ]
                    ],
                    "header": [
                    ],
                    "caption": "",
                    "striped": false,
                    "bordered": false,
                    "hover": false,
                    "condensed": false,
                    "type": "table"
                }
            ],
            "type": "panel",
            "alignment": "left",
            "size": 12,
            "id": "panel1",
            "style": {
                "margin-top": "1",
                "margin-right": "1",
                "margin-bottom": "1",
                "margin-left": "1"
            }
        }
    ],
    "buttons": [
        {
            "input": true,
            "label": "Save and Close",
            "placeholder": "Save and Close",
            "tableView": false,
            "key": "submit",
            "size": "md",
            "leftIcon": "",
            "rightIcon": "",
            "block": false,
            "action": "saveCloseForm(main)",
            "disableOnInvalid": true,
            "theme": "primary",
            "type": "button"
        },
        {
            "input": true,
            "label": "Save",
            "tableView": false,
            "key": "submit",
            "size": "md",
            "leftIcon": "",
            "rightIcon": "",
            "block": false,
            "action": "saveForm(main)",
            "disableOnInvalid": true,
            "theme": "primary",
            "type": "button"
        },
        {
            "input": true,
            "label": "Cancel",
            "tableView": false,
            "key": "submit",
            "size": "md",
            "leftIcon": "",
            "rightIcon": "",
            "block": false,
            "action": "reset()",
            "disableOnInvalid": true,
            "theme": "primary",
            "type": "button"
        }
    ]
}
