{
    "_id": "569de1ade730ed0100413d44",
    "modified": "2016-01-19T07:11:41.339Z",
    "title": "View Price Band Maintenance",
    "type": "form",
    "name": "pricebandmaintenanceView",
    "path": "pricebandmaintenanceView",
    "project": "MansysCloud",
    "created": "2016-01-19T07:11:41.297Z",
    "deleteKey": [
        {
            "key": "PriceBandId"
        }
    ],
    "components": [
        {
            "input": false,
            "title": "Price Band Maintenance",
            "theme": "primary",
            "components": [
                {
                    "components": [
                        {
                            "isNew": true,
                            "type": "columns",
                            "columns": [
                                {
                                    "components": [
                                        {
                                            "input": false,
                                            "class": "panel4",
                                            "numRows": 2,
                                            "numCols": 5,
                                            "hover": false,
                                            "size": 4,
                                            "condensed": false,
                                            "type": "ui-grid",
                                            "filter": true,
                                            "gridKey": "priceBandList"
                                        }
                                    ],
                                    "size": 12
                                }
                            ],
                            "input": false
                        }

                    ]
                }
            ],
            "type": "panel",
            "id": "panel1",
            "style": {
                "margin-top": "1",
                "margin-right": "1",
                "margin-bottom": "1",
                "margin-left": "1"
            }
        }
    ],
    "gridData": [{
            "gridKey": "priceBandList",
            "apiCall": true,
            "enableRowSelection": true,
            "apiUrl": "priceBand",
            "header": [{
                    "field": "priceBandCode",
                    "headerCellTemplate": "<div role=\"columnheader\" ng-class=\"{ 'sortable': sortable }\" ui-grid-one-bind-aria-labelledby-grid=\"col.uid + '-header-text ' + col.uid + '-sortdir-text'\" > <div ng-click='grid.appScope.mansysData.sorting($event,\"priceBandCode\")' class=\"ui-grid-cell-contents\" col-index=\"renderIndex\" title=\"TOOLTIP\"> <span>{{ col.displayName CUSTOM_FILTERS }}{{sort}}</span><i ng-class=\"{ 'ui-grid-icon-up-dir': col.sort.direction == asc, 'ui-grid-icon-down-dir': col.sort.direction == desc }\" ></i> </div><div class=\"ui-grid-column-menu-button\" ng-if=\"grid.options.enableColumnMenus && !col.isRowHeader  && col.colDef.enableColumnMenu !== false\" ng-click=\"toggleMenu($event)\" ng-class=\"{'ui-grid-column-menu-button-last-col': isLastCol}\"><i class=\"\">&nbsp;</i></div><div ui-grid-filter></div></div>"
                },
                {
                    "field": "priceBandDescription",
                    "headerCellTemplate": "<div role=\"columnheader\" ng-class=\"{ 'sortable': sortable }\" ui-grid-one-bind-aria-labelledby-grid=\"col.uid + '-header-text ' + col.uid + '-sortdir-text'\" > <div ng-click='grid.appScope.mansysData.sorting($event,\"priceBandDescription\")' class=\"ui-grid-cell-contents\" col-index=\"renderIndex\" title=\"TOOLTIP\"> <span>{{ col.displayName CUSTOM_FILTERS }}{{sort}}</span><i ng-class=\"{ 'ui-grid-icon-up-dir': col.sort.direction == asc, 'ui-grid-icon-down-dir': col.sort.direction == desc }\" ></i> </div><div class=\"ui-grid-column-menu-button\" ng-if=\"grid.options.enableColumnMenus && !col.isRowHeader  && col.colDef.enableColumnMenu !== false\" ng-click=\"toggleMenu($event)\" ng-class=\"{'ui-grid-column-menu-button-last-col': isLastCol}\"><i class=\"\">&nbsp;</i></div><div ui-grid-filter></div></div>"
                },
                {
                    "field": "currencyCode",
                    "headerCellTemplate": "<div role=\"columnheader\" ng-class=\"{ 'sortable': sortable }\" ui-grid-one-bind-aria-labelledby-grid=\"col.uid + '-header-text ' + col.uid + '-sortdir-text'\" > <div ng-click='grid.appScope.mansysData.sorting($event,\"currencyCode\")' class=\"ui-grid-cell-contents\" col-index=\"renderIndex\" title=\"TOOLTIP\"> <span>{{ col.displayName CUSTOM_FILTERS }}{{sort}}</span><i ng-class=\"{ 'ui-grid-icon-up-dir': col.sort.direction == asc, 'ui-grid-icon-down-dir': col.sort.direction == desc }\" ></i> </div><div class=\"ui-grid-column-menu-button\" ng-if=\"grid.options.enableColumnMenus && !col.isRowHeader  && col.colDef.enableColumnMenu !== false\" ng-click=\"toggleMenu($event)\" ng-class=\"{'ui-grid-column-menu-button-last-col': isLastCol}\"><i class=\"\">&nbsp;</i></div><div ui-grid-filter></div></div>"
                },
                {
                    "field": "currencyName",
                    "headerCellTemplate": "<div role=\"columnheader\" ng-class=\"{ 'sortable': sortable }\" ui-grid-one-bind-aria-labelledby-grid=\"col.uid + '-header-text ' + col.uid + '-sortdir-text'\" > <div ng-click='grid.appScope.mansysData.sorting($event,\"currencyName\")' class=\"ui-grid-cell-contents\" col-index=\"renderIndex\" title=\"TOOLTIP\"> <span>{{ col.displayName CUSTOM_FILTERS }}{{sort}}</span><i ng-class=\"{ 'ui-grid-icon-up-dir': col.sort.direction == asc, 'ui-grid-icon-down-dir': col.sort.direction == desc }\" ></i> </div><div class=\"ui-grid-column-menu-button\" ng-if=\"grid.options.enableColumnMenus && !col.isRowHeader  && col.colDef.enableColumnMenu !== false\" ng-click=\"toggleMenu($event)\" ng-class=\"{'ui-grid-column-menu-button-last-col': isLastCol}\"><i class=\"\">&nbsp;</i></div><div ui-grid-filter></div></div>"
                },
                {
                    "field": "dateOfNextReview",
                    "headerCellTemplate": "<div role=\"columnheader\" ng-class=\"{ 'sortable': sortable }\" ui-grid-one-bind-aria-labelledby-grid=\"col.uid + '-header-text ' + col.uid + '-sortdir-text'\" > <div ng-click='grid.appScope.mansysData.sorting($event,\"TelephoneNumber\")' class=\"ui-grid-cell-contents\" col-index=\"renderIndex\" title=\"TOOLTIP\"> <span>{{ col.displayName CUSTOM_FILTERS }}{{sort}}</span><i ng-class=\"{ 'ui-grid-icon-up-dir': col.sort.direction == asc, 'ui-grid-icon-down-dir': col.sort.direction == desc }\" ></i> </div><button  class=\"btn btn-md xs-46 green mr5 pull-right refreshButton\"  title=\"Refresh\" ng-click=\"grid.appScope.mansysData.refreshDynamicGridData();\"><i class=\"fa fa-refresh\" aria-hidden=\"true\" style=\"position:relative;top:-2px;\"></i></button><div class=\"ui-grid-column-menu-button\" ng-if=\"grid.options.enableColumnMenus && !col.isRowHeader  && col.colDef.enableColumnMenu !== false\" ng-click=\"toggleMenu($event)\" ng-class=\"{'ui-grid-column-menu-button-last-col': isLastCol}\"><i class=\"\">&nbsp;</i></div><div ui-grid-filter></div></div>"
                }
            ],
            "methodType": "GET",
            "params": {},
            "caption": "",
            "striped": false,
            "mappedData": null,
            "mappedKey": null,
            "filter": true
        }]
}
